natalidad - Natalidad en Uruguay entre los años 1999 y 2021
…
# A tibble: 27 × 4
# Groups:   Anio_parto [27]
   Anio_parto `Total año` Total Prop_cesarea
        <dbl>       <int> <int>        <dbl>
 1       1995        1580   315        0.199
 2       1996       58615 12859        0.219
 3       1997       54867 11976        0.218
 4       1998        1247   286        0.229
 5       1999       53833 12311        0.229
 6       2000       53151 12721        0.239
 7       2001       51905 13619        0.262
 8       2002       51794 13366        0.258
 9       2003       50504 13473        0.267
10       2004       49959 14415        0.289
# ℹ 17 more rows
…
# A tibble: 27 × 2
   Anio_parto edad_media_madre
        <dbl>            <dbl>
 1       1995             26.1
 2       1996             26.4
 3       1997             26.3
 4       1998             26.1
 5       1999             26.4
 6       2000             26.6
 7       2001             26.4
 8       2002             26.6
 9       2003             26.7
10       2004             26.8
# ℹ 17 more rows
…
# A tibble: 27 × 2
   Anio_parto edad_media_madre
        <dbl>            <dbl>
 1       1995               47
 2       1996               52
 3       1997               54
 4       1998               47
 5       1999               49
 6       2000               53
 7       2001               49
 8       2002               53
 9       2003               53
10       2004               53
# ℹ 17 more rows

# A tibble: 27 × 2
   Anio_parto edad_media_padre
        <dbl>            <dbl>
 1       1995             30.5
 2       1996             30.8
 3       1997             30.8
 4       1998             30.7
 5       1999             31.0
 6       2000             31.4
 7       2001             31.1
 8       2002             31.3
 9       2003             31.6
10       2004             31.7
# ℹ 17 more rows

# A tibble: 27 × 2
   Anio_parto edad_mediana_padre
        <dbl>              <dbl>
 1       1995                 30
 2       1996                 30
 3       1997                 30
 4       1998                 30
 5       1999                 31
 6       2000                 31
 7       2001                 30
 8       2002                 31
 9       2003                 31
10       2004                 31
# ℹ 17 more rows

# A tibble: 27 × 2
   Anio_parto edad_maxima_padre
        <dbl>             <dbl>
 1       1995                62
 2       1996                78
 3       1997                85
 4       1998                63
 5       1999                79
 6       2000                77
 7       2001                74
 8       2002                84
 9       2003                95
10       2004                76
# ℹ 17 more rows
